Binary classification with bitmodeling
…
logical. 작업 경과의 정보를 출력할지의 여부, 기본값은 TRUE.

모델의 성능 평가하기

적합한 binary classifiers 모델의 성능평가를 수행해 봅니다.

모델의 계수 살펴보기

모델을 평가하기에 앞서서 어떤 변수들이 모델에서 target 변수에서
positive를 예측하는데 기여하는지 알고 싶을겁니다.

다음처럼 info_model() 함수가 계수를 추출해줍니다.

info_model(my_model, "coef")
# A tibble: 12 × 4
  term                  estimate penalty `estimate > 0`
  <fct>                    <dbl>   <dbl> <lgl>         
1 age                0.0178         0.01 TRUE          
2 cpk_enzyme         0.000139       0.01 TRUE          
3 ejection_fraction -0.0268         0.01 FALSE         
4 platelets         -0.000000900    0.01 FALSE         
# … with 8 more rows
…
nbins 인수를 사용하면 빈의 개수를 지정할 수도
있습니다.

info_model(my_model, "quantiles", nbins = 7)

# A tibble: 7 × 6
  binn              n positive negative prob_positive  lift
  <chr>         <int>    <int>    <int>         <dbl> <dbl>
1 (0,0.164]        12        0       12        0      0    
2 (0.164,0.225]    13        1       12        0.0769 0.239
3 (0.225,0.375]    13        1       12        0.0769 0.239
4 (0.375,0.449]    13        5        8        0.385  1.19 
# … with 3 more rows
…
ℹ Step 4 : solve the evaluate metrics
✔ Step 4 : solve the evaluate metrics [30ms]

모델의 성능 평가

통계량 보기

compare_info_model() 함수로 성능평가를 위한 정보를
추출할 수 있습니다. info_model()과 사용법이 거의 유사하므로
여기서는 간단하게 성능지표만 추출해 봅니다.

compare_info_model(my_models, "metrics")
$ridge
# A tibble: 17 × 3
  .metric              .estimator .estimate
  <chr>                <chr>          <dbl>
1 accuracy             binary         0.778
2 bal_accuracy         binary         0.764
3 detection_prevalence binary         0.633
4 f_meas               binary         0.831
# … with 13 more rows

$ranger
# A tibble: 17 × 3
  .metric              .estimator .estimate
  <chr>                <chr>          <dbl>
1 accuracy             binary         0.856
2 bal_accuracy         binary         0.830
3 detection_prevalence binary         0.689
4 f_meas               binary         0.894
# … with 13 more rows

merge 인수를 TRUE로 지정하면, 복수개의 모델을 하나의
데이터로 병합해 줍니다.

compare_info_model(my_models, "metrics", merge = TRUE)
# A tibble: 34 × 4
  classifier .metric              .estimator .estimate
  <chr>      <chr>                <chr>          <dbl>
1 ridge      accuracy             binary         0.778
2 ridge      bal_accuracy         binary         0.764
3 ridge      detection_prevalence binary         0.633
4 ridge      f_meas               binary         0.831
# … with 30 more rows
…
통계량 보기

compare_info_model() 함수로 성능평가를 위한 정보를
추출할 수 있습니다. info_model()과 사용법이 거의 유사하므로
여기서는 간단하게 성능지표만 추출해 봅니다.

다만 복수개의 레시피 모델의 결과는 레시피 결과를 성분으로 갖는 리스트
객체로 반환되므로 다음처럼 “[[” 연산자로 레시피 내에서의 classifiers
별로 성능을 비교합니다. 이 예제는 첫째 레시피인
death_event ~ . 포뮬러에 대한 통계량입니다.

compare_info_model(my_recipes[[1]], "metrics")
$ridge
# A tibble: 17 × 3
  .metric              .estimator .estimate
  <chr>                <chr>          <dbl>
1 accuracy             binary         0.767
2 bal_accuracy         binary         0.765
3 detection_prevalence binary         0.6  
4 f_meas               binary         0.817
# … with 13 more rows

$ranger
# A tibble: 17 × 3
  .metric              .estimator .estimate
  <chr>                <chr>          <dbl>
1 accuracy             binary         0.8  
2 bal_accuracy         binary         0.771
3 detection_prevalence binary         0.678
4 f_meas               binary         0.852
# … with 13 more rows
…
