Introduce tidymodels
…
ROC Courve

ROC Courve를 그리기 위해서는 먼저 roc_curve()함수로
임계치, specificity, sensitivity를 계산합니다.

# Calculate metrics across thresholds
threshold <- heartfailure_result %>% 
  roc_curve(truth = death_event, .pred_Yes)

threshold 
# A tibble: 92 × 3
  .threshold specificity sensitivity
       <dbl>       <dbl>       <dbl>
1 -Inf            0                1
2    0.00330      0                1
3    0.00350      0.0164           1
4    0.00464      0.0328           1
# … with 88 more rows
…
또 다른 재료 조리하기

빵을 구울 수도 있습니다. bake() 함수는 레시피를 요리하여
빵을 구워 줍니다. 이 때 대상이되는 재료를 지정할 수 있습니다. 즉
recipe() 함수로 조리 방법을 정의할 때 기술한 데이터셋이
아닌 다른 데이터셋을 요리할 수 있습니다. 대체로 test 데이터셋을 요리할
때 사용합니다.

test 데이터셋인 heartfailure_test를 조회해 봅니다.

heartfailure_test %>% 
  tibble::as_tibble()
# A tibble: 90 × 13
    age anaemia cpk_enzyme diabetes eject…¹ hbloo…² plate…³ creat…⁴ sodium sex  
  <int> <fct>        <dbl> <fct>      <dbl> <fct>     <dbl>   <dbl>  <dbl> <fct>
1    75 No             582 No            20 Yes     265000      1.9    130 Male 
2    55 No            7861 No            38 No      263358.     1.1    136 Male 
3    65 No             146 No            20 No      162000      1.3    129 Male 
4    50 Yes            111 No            20 No      210000      1.9    137 Male 
# … with 86 more rows, 3 more variables: smoking <fct>, time <int>,
#   death_event <fct>, and abbreviated variable names ¹​ejection_fraction,
#   ²​hblood_pressure, ³​platelets, ⁴​creatinine

training 데이터셋으로 정의한 레시피를 test 데이터셋에 적용하여
조리합니다. 결과를 보면, 수치형 변수가 표준화되었음을 알 수
있습니다.

heartfailure_recipe %>% 
  prep() %>% 
  bake(new_data = heartfailure_test)
# A tibble: 90 × 13
     age anaemia cpk_enz…¹ diabe…² ejecti…³ hbloo…⁴ plate…⁵ creat…⁶ sodium sex  
   <dbl> <fct>       <dbl> <fct>      <dbl> <fct>     <dbl>   <dbl>  <dbl> <fct>
1  13.6  No           3.06 No      -18.1    Yes      1.71e3  0.509  -6.84  Male 
2  -6.36 No        7282.   No       -0.0909 No       6.39e1 -0.291  -0.837 Male 
3   3.64 No        -433.   No      -18.1    No      -1.01e5 -0.0914 -7.84  Male 
4 -11.4  Yes       -468.   No      -18.1    No      -5.33e4  0.509   0.163 Male 
# … with 86 more rows, 3 more variables: smoking <fct>, time <dbl>,
#   death_event <fct>, and abbreviated variable names ¹​cpk_enzyme, ²​diabetes,
#   ³​ejection_fraction, ⁴​hblood_pressure, ⁵​platelets, ⁶​creatinine
…
rsample 패키지의 vfold_cv() 함수를
사용합니다. 다음은 10-Fold Cross-Validation을
정의합니다.

set.seed(12345)

# `10-Fold Cross-Validation` 정의
heartfailure_fold <- heartfailure_train %>% 
  vfold_cv(v = 10, strata = death_event)

# `10-Fold Cross-Validation` 내용
heartfailure_fold
#  10-fold cross-validation using stratification 
# A tibble: 10 × 2
  splits           id    
  <list>           <chr> 
1 <split [187/22]> Fold01
2 <split [187/22]> Fold02
3 <split [188/21]> Fold03
4 <split [188/21]> Fold04
# … with 6 more rows
…
collect_metrics() 함수는 30개의 penalty 값별로 계산한
성능평가 지표를 조회합니다. accuracy부터 specificity까지 13개의
성능지표에 대한 추정값을 조회할 수 있습니다.

10-Fold CV로 30개 penalty에 대해 30개의 모델이 적합되고 각각 13개의
성능지표를 계산하였으므로, 390개의 지표가 계산됩니다.

lasso_tune_grid %>%
  tune::collect_metrics()
# A tibble: 390 × 7
  penalty .metric              .estimator  mean     n std_err .config           
    <dbl> <chr>                <chr>      <dbl> <int>   <dbl> <chr>             
1    0.01 accuracy             binary     0.813    10  0.0266 Preprocessor1_Mod…
2    0.01 bal_accuracy         binary     0.795    10  0.0308 Preprocessor1_Mod…
3    0.01 detection_prevalence binary     0.345    10  0.0225 Preprocessor1_Mod…
4    0.01 f_meas               binary     0.717    10  0.0409 Preprocessor1_Mod…
# … with 386 more rows
…
이 워크플로우로 최종 모델에서의 개별 변수의 계수를 다음처럼 계산할 수
있습니다.

coefs <- final_wf %>%
  fit(data = heartfailure_train) %>% 
  tidy() %>%
  filter(!term %in% "(Intercept)") %>%
  group_by(estimate > 0) %>%
  top_n(10, abs(estimate)) %>%
  ungroup() %>%
  mutate(term = forcats::fct_reorder(term, estimate)) %>%
  filter(estimate != 0)  

coefs
# A tibble: 5 × 4
  term              estimate penalty `estimate > 0`
  <fct>                <dbl>   <dbl> <lgl>         
1 age                -0.0131  0.0489 FALSE         
2 ejection_fraction   0.0308  0.0489 TRUE          
3 creatinine         -0.272   0.0489 FALSE         
4 sodium              0.0430  0.0489 TRUE          
# … with 1 more row
…
# 최종 모형 적합
final_fit <- final_wf %>%
  tune::last_fit(split = heartfailure_split)

# test 데이터셋의 target variable 예측
pred <- final_fit %>%
  tune::collect_predictions()

# 예측된 결과
pred
# A tibble: 90 × 7
  id               .pred_Yes .pred_No  .row .pred_class death_event .config     
  <chr>                <dbl>    <dbl> <int> <fct>       <fct>       <chr>       
1 train/test split     0.900   0.0999     1 Yes         Yes         Preprocesso…
2 train/test split     0.708   0.292      2 Yes         Yes         Preprocesso…
3 train/test split     0.872   0.128      3 Yes         Yes         Preprocesso…
4 train/test split     0.823   0.177      4 Yes         Yes         Preprocesso…
# … with 86 more rows
…
